{
    "apps": {
      "name": "go-teltonika",
      "address": "0.0.0.0",
      "port": 1883
    },
    "logger": {
      "fileTdrLocation": "logs/tdr.log",
      "fileSyslogLocation": "logs/syslog.log",
      "fileMaxAge": 30,
      "stdout": true
    },
    "mysql": {
        "enable": false,
        "host": "localhost",
        "username": "apps",
        "password": "aplikasi",
        "database": "connectinc_iot",
        "port": 3306,
        "maxIdleConn": 10,
        "maxOpenConn": 30,
        "maxLifeTime": 900
    },
    "http": {
      "enable": true,
      "method": "POST",
      "timeout": 10000,
      "url": "https://connectinc.telkomsel.com/tsel-iot/api/thing/push-data",
      "body":{
        "token_key": "bf0b75c5-be05-4f67-97e1-d16abda70e2e",
        "json_data": "{ \"datasource\" : \"[longitude],[latitude]\"}"
      }
    },
    "kafka": {
      "enable": false,
      "clientId": "go-teltonika",
      "brokers": ["localhost:9092"],
      "topics": "teltonika"
    }
  }
  